%YAML 1.1
%TAG !u! tag:unity3d.com,2011:
--- !u!114 &11400000
MonoBehaviour:
  m_ObjectHideFlags: 0
  m_CorrespondingSourceObject: {fileID: 0}
  m_PrefabInstance: {fileID: 0}
  m_PrefabAsset: {fileID: 0}
  m_GameObject: {fileID: 0}
  m_Enabled: 1
  m_EditorHideFlags: 0
  m_Script: {fileID: 11500000, guid: 24105eddccb696243a313be028941007, type: 3}
  m_Name: Conversa Molly e Mike
  m_EditorClassIdentifier: 
  dialogueInfo:
  - character: {fileID: 11400000, guid: 38551a8a3d245404d84685f0b081e6a5, type: 2}
    text: "Hey\r\n"
  - character: {fileID: 11400000, guid: c9fc37cd98b90044f926064a197bf23e, type: 2}
    text: "Obrigada por ter me ajudado, eu tava meio em d\xFAvida com suas habilidades,
      s\xF3 que voc\xEA me surpreendeu hehe. A prop\xF3sito meu nome \xE9 Molly.\r\n"
  - character: {fileID: 11400000, guid: 38551a8a3d245404d84685f0b081e6a5, type: 2}
    text: "Se tava em d\xFAvida, por que pediu minha ajuda? Ahh quer saber? deixa
      pra l\xE1. Prazer, eu me chamo Mike.\r\n"
  - character: {fileID: 11400000, guid: 314c096be12a36b41a7b023ceda3063f, type: 2}
    text: "Mike\u2026 Eu  j\xE1 sei o motivo de voc\xEA ter vindo aqui."
  - character: {fileID: 11400000, guid: 38551a8a3d245404d84685f0b081e6a5, type: 2}
    text: "Pera, que?! Como que voc\xEA sabe?? "
  - character: {fileID: 11400000, guid: 314c096be12a36b41a7b023ceda3063f, type: 2}
    text: "Eu consigo monitorar a cidade toda daqui, eu sou a informante do Mercado
      Negro. Na minha opini\xE3o seu objetivo \xE9 muito arriscado.\r\n"
  - character: {fileID: 11400000, guid: 38551a8a3d245404d84685f0b081e6a5, type: 2}
    text: "E voc\xEA acha que eu n\xE3o sei disso? S\xF3 que meus amigos s\xE3o a
      minha \xFAnica fam\xEDlia , ou o que restou dela\u2026 S\xF3 que n\xE3o ligo,
      por eles eu fa\xE7o qualquer coisa.\r\n"
  - character: {fileID: 11400000, guid: 314c096be12a36b41a7b023ceda3063f, type: 2}
    text: "Pelo jeito n\xE3o voc\xEA n\xE3o vai mudar de id\xE9ia, s\xF3 que eu gostei
      da sua determina\xE7\xE3o hehe. Vem aqui, vou te dar uma pequena ajuda antes
      de voc\xEA ir.\r\n"
