%YAML 1.1
%TAG !u! tag:unity3d.com,2011:
--- !u!114 &11400000
MonoBehaviour:
  m_ObjectHideFlags: 0
  m_CorrespondingSourceObject: {fileID: 0}
  m_PrefabInstance: {fileID: 0}
  m_PrefabAsset: {fileID: 0}
  m_GameObject: {fileID: 0}
  m_Enabled: 1
  m_EditorHideFlags: 0
  m_Script: {fileID: 11500000, guid: 24105eddccb696243a313be028941007, type: 3}
  m_Name: Dialogo Final
  m_EditorClassIdentifier: 
  dialogueInfo:
  - character: {fileID: 11400000, guid: 38551a8a3d245404d84685f0b081e6a5, type: 2}
    text: "O que? Isso que ele acabou de fazer\u2026 ele \xE9 um mutante??\r\n"
  - character: {fileID: 11400000, guid: 314c096be12a36b41a7b023ceda3063f, type: 2}
    text: "Mike, que bom que voc\xEA consegue me ouvir, eu consegui ganhar acesso
      novamente. S\xF3 que aparentemente algu\xE9m est\xE1 liberando todas as c\xE1psulas
      de todos os prisioneiros, incluindo a do seus amigos.\r\n"
  - character: {fileID: 11400000, guid: 38551a8a3d245404d84685f0b081e6a5, type: 2}
    text: "Eu sei, Nero fez isso. Ele conseguiu escapar\u2026 s\xF3 que as c\xE1psulas
      est\xE3o dos meus amigos est\xE3o aqui, enfim vou poder salvo-los.\r\n"
  - character: {fileID: 11400000, guid: 38551a8a3d245404d84685f0b081e6a5, type: 2}
    text: "As C\xE1psulas se abriram\u2026\r\n"
