%YAML 1.1
%TAG !u! tag:unity3d.com,2011:
--- !u!114 &11400000
MonoBehaviour:
  m_ObjectHideFlags: 0
  m_CorrespondingSourceObject: {fileID: 0}
  m_PrefabInstance: {fileID: 0}
  m_PrefabAsset: {fileID: 0}
  m_GameObject: {fileID: 0}
  m_Enabled: 1
  m_EditorHideFlags: 0
  m_Script: {fileID: 11500000, guid: 24105eddccb696243a313be028941007, type: 3}
  m_Name: Mike e Nero
  m_EditorClassIdentifier: 
  dialogueInfo:
  - character: {fileID: 11400000, guid: 38551a8a3d245404d84685f0b081e6a5, type: 2}
    text: "ONDE ELES EST\xC3O?!"
  - character: {fileID: 11400000, guid: 314c096be12a36b41a7b023ceda3063f, type: 2}
    text: "*J\xE1 estou checando no sistema.... N\xE3o n\xE3o n\xE3o n\xE3oooo. Mike
      tem algo de muito errado, os meus acessos est\xE3o sendo negados.*\r\n"
  - character: {fileID: 11400000, guid: 7b781847848a3da46a2834e7ece8939f, type: 2}
    text: "N\xE3o adianta continuar tentando, eu neguei todos os acessos. Se voc\xEAs
      est\xE3o procurando seus amiguinhos, n\xE3o v\xE3o encontr\xE1-los a\xED hahaha.\r\n"
  - character: {fileID: 11400000, guid: 38551a8a3d245404d84685f0b081e6a5, type: 2}
    text: "Desgra\xE7ado! Onde voc\xEA levou eles?? E quem \xE9 voc\xEA??\r\n"
  - character: {fileID: 11400000, guid: 7b781847848a3da46a2834e7ece8939f, type: 2}
    text: "Ah que falta de educa\xE7\xE3o a minha n\xE3o me apresentar.\r\n"
  - character: {fileID: 11400000, guid: 571d694b64195644283382c62173f5c4, type: 2}
    text: "Eu sou o Presidente da Null, s\xF3 que podem me chamar de Nero.\r\n"
  - character: {fileID: 11400000, guid: 314c096be12a36b41a7b023ceda3063f, type: 2}
    text: "* eu vou continuar procurando alguma brecha no sistema para ver se consigo
      invadir.*\r\n"
  - character: {fileID: 11400000, guid: 38551a8a3d245404d84685f0b081e6a5, type: 2}
    text: "Eu sei que vai\r.\n"
  - character: {fileID: 11400000, guid: 571d694b64195644283382c62173f5c4, type: 2}
    text: "HA HA HA quem diria que o mutante de quem recebi chamadas e relat\xF3rios
      dizendo que eliminou diversas das minhas unidades estaria em minha frente. Voc\xEA
      chamou mais aten\xE7\xE3o do que imagina Mike Smith, diversas pessoas colocaram
      os olhos em voc\xEA pelo que conseguiu fazer sozinho.\n"
  - character: {fileID: 11400000, guid: 571d694b64195644283382c62173f5c4, type: 2}
    text: "Agora as pe\xE7as desse tabuleiro v\xE3o come\xE7ar a fazer suas jogadas
      HAHAHA.\r"
  - character: {fileID: 11400000, guid: 38551a8a3d245404d84685f0b081e6a5, type: 2}
    text: "Do que voc\xEA est\xE1 falando??\r\n\n"
  - character: {fileID: 11400000, guid: 571d694b64195644283382c62173f5c4, type: 2}
    text: "Logo menos voc\xEA ir\xE1 descobrir, s\xF3 que vamos terminar nossa conversa
      de hoje por aqui, ainda vamos nos encontrar bastante no futuro. Seus amiguinhos
      est\xE3o logo atr\xE1s de mim, eu deixo voc\xEA ter seu reencontro t\xE3o desejado.\n"
  - character: {fileID: 11400000, guid: 571d694b64195644283382c62173f5c4, type: 2}
    text: "At\xE9 uma pr\xF3xima Mike HA HA HA!\n"
