%YAML 1.1
%TAG !u! tag:unity3d.com,2011:
--- !u!1 &6020950155665567044
GameObject:
  m_ObjectHideFlags: 0
  m_CorrespondingSourceObject: {fileID: 0}
  m_PrefabInstance: {fileID: 0}
  m_PrefabAsset: {fileID: 0}
  serializedVersion: 6
  m_Component:
  - component: {fileID: 6020950155665567035}
  - component: {fileID: 6020950155665567034}
  m_Layer: 0
  m_Name: Audio Manager
  m_TagString: Untagged
  m_Icon: {fileID: 0}
  m_NavMeshLayer: 0
  m_StaticEditorFlags: 0
  m_IsActive: 1
--- !u!4 &6020950155665567035
Transform:
  m_ObjectHideFlags: 0
  m_CorrespondingSourceObject: {fileID: 0}
  m_PrefabInstance: {fileID: 0}
  m_PrefabAsset: {fileID: 0}
  m_GameObject: {fileID: 6020950155665567044}
  m_LocalRotation: {x: 0, y: 0, z: 0, w: 1}
  m_LocalPosition: {x: 81.75882, y: 5.8808403, z: -0.6215662}
  m_LocalScale: {x: 1, y: 1, z: 1}
  m_Children: []
  m_Father: {fileID: 0}
  m_RootOrder: 0
  m_LocalEulerAnglesHint: {x: 0, y: 0, z: 0}
--- !u!114 &6020950155665567034
MonoBehaviour:
  m_ObjectHideFlags: 0
  m_CorrespondingSourceObject: {fileID: 0}
  m_PrefabInstance: {fileID: 0}
  m_PrefabAsset: {fileID: 0}
  m_GameObject: {fileID: 6020950155665567044}
  m_Enabled: 1
  m_EditorHideFlags: 0
  m_Script: {fileID: 11500000, guid: 86048b50f60fa8e47a868283d3b347fd, type: 3}
  m_Name: 
  m_EditorClassIdentifier: 
  sounds:
  - name: Tiro Mike
    clip: {fileID: 8300000, guid: d32dbacb452b6f340bec53f9a3fea290, type: 3}
    volume: 0.5
    pitch: 1
    loop: 0
    source: {fileID: 0}
  - name: Mike Slide
    clip: {fileID: 8300000, guid: 4c3331563b71846459643300a4d0ecfc, type: 3}
    volume: 0.5
    pitch: 1
    loop: 0
    source: {fileID: 0}
  - name: Mike Passos
    clip: {fileID: 8300000, guid: 4d6dddd0a5610c841839e220ab5cb282, type: 3}
    volume: 0.3
    pitch: 1
    loop: 0
    source: {fileID: 0}
  - name: Mike ATK
    clip: {fileID: 8300000, guid: bb1c810fe0b3d4c47af137c1d9da0bc8, type: 3}
    volume: 0.1
    pitch: 1
    loop: 0
    source: {fileID: 0}
  - name: Mike Pulando
    clip: {fileID: 8300000, guid: 81c9d12c760108444b19d9c7ec20c375, type: 3}
    volume: 0.2
    pitch: 1
    loop: 0
    source: {fileID: 0}
  - name: Mike Dano
    clip: {fileID: 8300000, guid: 33443c768afdc294a8ae47c0e0a9b078, type: 3}
    volume: 0.3
    pitch: 1
    loop: 0
    source: {fileID: 0}
  - name: Mike Morrendo
    clip: {fileID: 8300000, guid: 31f461e00d326484b9f3d45f21f64cdd, type: 3}
    volume: 0.3
    pitch: 1
    loop: 0
    source: {fileID: 0}
  - name: Inimigo Morrendo
    clip: {fileID: 8300000, guid: c0b28961c9809d0459e30537c7df63fb, type: 3}
    volume: 0.3
    pitch: 1
    loop: 0
    source: {fileID: 0}
  - name: Inimigo ATK
    clip: {fileID: 8300000, guid: 7a7163eaa4809e04c8d221c9ff7c03b7, type: 3}
    volume: 0.3
    pitch: 1
    loop: 0
    source: {fileID: 0}
  - name: "Menu Bot\xE3o"
    clip: {fileID: 8300000, guid: 186d8cbacee1e4842a8a29f4c256d408, type: 3}
    volume: 0.5
    pitch: 1
    loop: 0
    source: {fileID: 0}
