%YAML 1.1
%TAG !u! tag:unity3d.com,2011:
--- !u!114 &11400000
MonoBehaviour:
  m_ObjectHideFlags: 0
  m_CorrespondingSourceObject: {fileID: 0}
  m_PrefabInstance: {fileID: 0}
  m_PrefabAsset: {fileID: 0}
  m_GameObject: {fileID: 0}
  m_Enabled: 1
  m_EditorHideFlags: 0
  m_Script: {fileID: 11500000, guid: 25794b870f698ec49be19d6cb9142ef0, type: 3}
  m_Name: Homem Misterioso
  m_EditorClassIdentifier: 
  name: Homem Misterioso
  portrait: {fileID: 21300004, guid: 7d1b1522b9d23c9468fe2280ed15245c, type: 3}
